<?xml version="1.0" encoding="UTF-8"?>
<svg width="75px" height="24px" viewBox="0 0 75 24" version="1.1" xmlns="http://www.w3.org/2000/svg" xmlns:xlink="http://www.w3.org/1999/xlink">
    <!-- Generator: Sketch 49 (51002) - http://www.bohemiancoding.com/sketch -->
    <title>Group 5</title>
    <desc>Created with Sketch.</desc>
    <defs>
        <polygon id="path-1" points="0.5006 22.85309 4.0668 0.7762 9.7672 0.7762 6.2014 22.85309"></polygon>
        <path d="M17.8786,1.31807 L17.1065,6.10396 L16.5946,5.85128 C15.5428,5.40265 14.1931,4.97326 12.3285,5.00326 C10.0958,5.00326 9.0642,5.98528 9.0629,6.90307 C9.0489,7.93921 10.2715,8.61737 12.2636,9.6408 C15.5533,11.21555 17.0723,13.12319 17.0517,15.63953 C17.0061,20.22067 13.1142,23.18043 7.1246,23.18043 C4.5672,23.15239 2.103,22.61867 0.7737,22.00376 L1.5709,17.06203 L2.3042,17.4135 C4.1789,18.23772 5.3914,18.57125 7.6736,18.57125 C9.3126,18.57125 11.0703,17.89375 11.0856,16.41518 C11.0944,15.44848 10.3481,14.75663 8.1268,13.67549 C5.9655,12.62077 3.0987,10.85072 3.1346,7.67773 C3.1675,3.38775 7.1347,0.39148 12.7706,0.39148 C14.9788,0.39148 16.7515,0.87499 17.8786,1.31807 Z" id="path-3"></path>
        <path d="M9.469,15.02593 L14.2014,15.02593 C13.9761,13.9223 12.8823,8.65291 12.8823,8.65291 L12.4976,6.74885 C12.2097,7.57633 11.7066,8.91341 11.7399,8.85537 C11.7399,8.85537 9.9414,13.757 9.469,15.02593 Z M16.5016,0.79869 L21.115,22.86091 L15.8241,22.86091 C15.8241,22.86091 15.3008,20.3237 15.13,19.55327 C14.2996,19.55327 8.4818,19.54186 7.8287,19.54186 C7.607,20.13916 6.6302,22.86091 6.6302,22.86091 L0.6429,22.86091 L9.1084,2.62874 C9.707,1.18929 10.7298,0.79869 12.0962,0.79869 L16.5016,0.79869 Z" id="path-5"></path>
        <path d="M14.7183,0.79478 L20.7591,0.79478 L11.782,22.83026 L5.7491,22.83385 L0.6446,3.52599 C4.2649,5.44047 7.5015,9.26129 8.5412,12.78639 L9.1389,15.84592 L14.7183,0.79478 Z" id="path-7"></path>
        <path d="M9.9594,0.77978 C11.1974,0.82869 12.199,1.24341 12.5436,2.64243 L14.5412,12.78639 C12.5769,7.48015 7.8441,3.06595 0.6909,1.23721 L0.7669,0.77978 L9.9594,0.77978 Z" id="path-9"></path>
        <path d="M1.7371,1.41038 L2.007,1.41038 C2.1978,1.41038 2.2369,1.29887 2.2369,1.20921 C2.2369,1.055 2.1368,1.01913 1.9816,1.01913 L1.7371,1.01913 L1.7371,1.41038 Z M1.5039,0.84764 L2.0605,0.84764 C2.1903,0.84764 2.4749,0.88187 2.4749,1.20921 C2.4749,1.29594 2.4491,1.4182 2.263,1.49775 L2.263,1.5046 C2.4237,1.53199 2.4322,1.68392 2.4416,1.80618 C2.4534,2.00115 2.4416,2.03604 2.4925,2.10483 L2.2509,2.10483 C2.2049,2.05854 2.2154,2.02235 2.2049,1.81792 C2.2049,1.70185 2.1903,1.5835 1.9288,1.5835 L1.7371,1.5835 L1.7371,2.10483 L1.5039,2.10483 L1.5039,0.84764 Z M1.9637,2.55411 C2.5355,2.55411 2.9848,2.0794 2.9848,1.48634 C2.9848,0.89263 2.5355,0.41825 1.9637,0.41825 C1.3921,0.41825 0.9432,0.89263 0.9432,1.48634 C0.9432,2.0794 1.3921,2.55411 1.9637,2.55411 Z M1.9637,0.22719 C2.6689,0.22719 3.2228,0.79156 3.2228,1.48634 C3.2228,2.1808 2.6689,2.74517 1.9637,2.74517 C1.2588,2.74517 0.7055,2.1808 0.7055,1.48634 C0.7055,0.79156 1.2588,0.22719 1.9637,0.22719 Z" id="path-11"></path>
    </defs>
    <g id="Page-1" stroke="none" stroke-width="1" fill="none" fill-rule="evenodd">
        <g id="Group-5">
            <g id="Group-359" transform="translate(25.000000, 0.000000)">
                <mask id="mask-2" fill="white">
                    <use xlink:href="#path-1"></use>
                </mask>
                <g id="Clip-358"></g>
                <polygon id="Fill-357" fill="#2B3894" mask="url(#mask-2)" points="-4.4994 27.85309 14.7672 27.85309 14.7672 -4.2238 -4.4994 -4.2238"></polygon>
            </g>
            <g id="Group-362" transform="translate(34.000000, 0.000000)">
                <mask id="mask-4" fill="white">
                    <use xlink:href="#path-3"></use>
                </mask>
                <g id="Clip-361"></g>
                <polygon id="Fill-360" fill="#2B3894" mask="url(#mask-4)" points="-4.2263 28.18043 22.87854 28.18043 22.87854 -4.60852 -4.2263 -4.60852"></polygon>
            </g>
            <g id="Group-365" transform="translate(50.000000, 0.000000)">
                <mask id="mask-6" fill="white">
                    <use xlink:href="#path-5"></use>
                </mask>
                <g id="Clip-364"></g>
                <polygon id="Fill-363" fill="#2B3894" mask="url(#mask-6)" points="-4.3571 27.86091 26.11504 27.86091 26.11504 -4.20131 -4.3571 -4.20131"></polygon>
            </g>
            <g id="Group-368" transform="translate(6.000000, 0.000000)">
                <mask id="mask-8" fill="white">
                    <use xlink:href="#path-7"></use>
                </mask>
                <g id="Clip-367"></g>
                <polygon id="Fill-366" fill="#2B3894" mask="url(#mask-8)" points="-4.3554 27.83385 25.75908 27.83385 25.75908 -4.20522 -4.3554 -4.20522"></polygon>
            </g>
            <g id="Group-371">
                <mask id="mask-10" fill="white">
                    <use xlink:href="#path-9"></use>
                </mask>
                <g id="Clip-370"></g>
                <polygon id="Fill-369" fill="#F79510" mask="url(#mask-10)" points="-4.3091 17.78639 19.54124 17.78639 19.54124 -4.22022 -4.3091 -4.22022"></polygon>
            </g>
            <g id="Group-374" transform="translate(71.000000, 20.000000)">
                <mask id="mask-12" fill="white">
                    <use xlink:href="#path-11"></use>
                </mask>
                <g id="Clip-373"></g>
                <polygon id="Fill-372" fill="#2B3894" mask="url(#mask-12)" points="-4.2945 7.74517 8.22283 7.74517 8.22283 -4.77281 -4.2945 -4.77281"></polygon>
            </g>
        </g>
    </g>
</svg>